pmsm_motor_rtl/module_pmsm_v2_tb.vcd
$date
	Sat Apr 01 12:10:55 2023
$end
$version
	Icarus Verilog
$end
$timescale
	1ps
$end
$scope module module_pmsm_v2_tb $end
$var wire 16 ! torque [15:0] $end
$var wire 16 " speed [15:0] $end
$var wire 16 # position [15:0] $end
$var wire 16 $ I_c [15:0] $end
$var wire 16 % I_b [15:0] $end
$var wire 16 & I_a [15:0] $end
$var reg 3 ' V_phase [2:0] $end
$var reg 1 ( clk $end
$var integer 32 ) counter [31:0] $end
$var integer 32 * elapsed_time [31:0] $end
$scope module dut $end
$var wire 3 + V_phase [2:0] $end
$var wire 1 ( clk $end
$var reg 16 , I_a [15:0] $end
$var reg 16 - I_alpha [15:0] $end
$var reg 16 . I_b [15:0] $end
$var reg 16 / I_beta [15:0] $end
$var reg 16 0 I_c [15:0] $end
$var reg 16 1 I_d [15:0] $end
$var reg 16 2 I_q [15:0] $end
$var reg 16 3 V_alpha [15:0] $end
$var reg 16 4 V_beta [15:0] $end
$var reg 16 5 V_d [15:0] $end
$var reg 16 6 V_q [15:0] $end
$var reg 16 7 alpha [15:0] $end
$var reg 16 8 beta [15:0] $end
$var reg 16 9 omega [15:0] $end
$var reg 16 : position [15:0] $end
$var reg 16 ; speed [15:0] $end
$var reg 16 < theta [15:0] $end
$var reg 16 = torque [15:0] $end
$upscope $end
$upscope $end
$enddefinitions $end
#0
$dumpvars
bx =
bx <
bx ;
bx :
bx 9
b0 8
b0 7
bx 6
bx 5
bx 4
bx 3
bx 2
bx 1
bx 0
bx /
bx .
bx -
bx ,
b10 +
b0 *
b1 )
0(
b10 '
bx &
bx %
bx $
bx #
bx "
bx !
$end
#10000
b1111111111111111 8
1(
b100 '
b100 +
b10 )
b1010 *
#20000
b0 8
b1 7
0(
b11 '
b11 +
b11 )
b10100 *
#30000
b0 7
1(
b110 '
b110 +
b100 )
b11110 *
#40000
b1111111111111111 8
b1 7
0(
b101 '
b101 +
b101 )
b101000 *
#50000
b0 8
1(
b111 '
b111 +
b110 )
b110010 *
#60000
0(
b1 '
b1 +
b0 )
b111100 *
#70000
b0 7
1(
b10 '
b10 +
b1 )
b1000110 *
#80000
b1111111111111111 8
0(
b100 '
b100 +
b10 )
b1010000 *
#90000
b0 8
b1 7
1(
b11 '
b11 +
b11 )
b1011010 *
#100000
b0 7
0(
b110 '
b110 +
b100 )
b1100100 *
#110000
b1111111111111111 8
b1 7
1(
b101 '
b101 +
b101 )
b1101110 *
#120000
b0 8
0(
b111 '
b111 +
b110 )
b1111000 *
#130000
1(
b1 '
b1 +
b0 )
b10000010 *
#140000
b0 7
0(
b10 '
b10 +
b1 )
b10001100 *
#150000
b1111111111111111 8
1(
b100 '
b100 +
b10 )
b10010110 *
#160000
b0 8
b1 7
0(
b11 '
b11 +
b11 )
b10100000 *
#170000
b0 7
1(
b110 '
b110 +
b100 )
b10101010 *
#180000
b1111111111111111 8
b1 7
0(
b101 '
b101 +
b101 )
b10110100 *
#190000
b0 8
1(
b111 '
b111 +
b110 )
b10111110 *
#200000
0(
b1 '
b1 +
b0 )
b11001000 *
#210000
b0 7
1(
b10 '
b10 +
b1 )
b11010010 *
#220000
b1111111111111111 8
0(
b100 '
b100 +
b10 )
b11011100 *
#230000
b0 8
b1 7
1(
b11 '
b11 +
b11 )
b11100110 *
#240000
b0 7
0(
b110 '
b110 +
b100 )
b11110000 *
#250000
b1111111111111111 8
b1 7
1(
b101 '
b101 +
b101 )
b11111010 *
#260000
b0 8
0(
b111 '
b111 +
b110 )
b100000100 *
#270000
1(
b1 '
b1 +
b0 )
b100001110 *
#280000
b0 7
0(
b10 '
b10 +
b1 )
b100011000 *
#290000
b1111111111111111 8
1(
b100 '
b100 +
b10 )
b100100010 *
#300000
b0 8
b1 7
0(
b11 '
b11 +
b11 )
b100101100 *
#310000
b0 7
1(
b110 '
b110 +
b100 )
b100110110 *
#320000
b1111111111111111 8
b1 7
0(
b101 '
b101 +
b101 )
b101000000 *
#330000
b0 8
1(
b111 '
b111 +
b110 )
b101001010 *
#340000
0(
b1 '
b1 +
b0 )
b101010100 *
#350000
b0 7
1(
b10 '
b10 +
b1 )
b101011110 *
#360000
b1111111111111111 8
0(
b100 '
b100 +
b10 )
b101101000 *
#370000
b0 8
b1 7
1(
b11 '
b11 +
b11 )
b101110010 *
#380000
b0 7
0(
b110 '
b110 +
b100 )
b101111100 *
#390000
b1111111111111111 8
b1 7
1(
b101 '
b101 +
b101 )
b110000110 *
#400000
b0 8
0(
b111 '
b111 +
b110 )
b110010000 *
#410000
1(
b1 '
b1 +
b0 )
b110011010 *
#420000
b0 7
0(
b10 '
b10 +
b1 )
b110100100 *
#430000
b1111111111111111 8
1(
b100 '
b100 +
b10 )
b110101110 *
#440000
b0 8
b1 7
0(
b11 '
b11 +
b11 )
b110111000 *
#450000
b0 7
1(
b110 '
b110 +
b100 )
b111000010 *
#460000
b1111111111111111 8
b1 7
0(
b101 '
b101 +
b101 )
b111001100 *
#470000
b0 8
1(
b111 '
b111 +
b110 )
b111010110 *
#480000
0(
b1 '
b1 +
b0 )
b111100000 *
#490000
b0 7
1(
b10 '
b10 +
b1 )
b111101010 *
#500000
b1111111111111111 8
0(
b100 '
b100 +
b10 )
b111110100 *
#510000
b0 8
b1 7
1(
b11 '
b11 +
b11 )
b111111110 *
#520000
b0 7
0(
b110 '
b110 +
b100 )
b1000001000 *
#530000
b1111111111111111 8
b1 7
1(
b101 '
b101 +
b101 )
b1000010010 *
#540000
b0 8
0(
b111 '
b111 +
b110 )
b1000011100 *
#550000
1(
b1 '
b1 +
b0 )
b1000100110 *
#560000
b0 7
0(
b10 '
b10 +
b1 )
b1000110000 *
#570000
b1111111111111111 8
1(
b100 '
b100 +
b10 )
b1000111010 *
#580000
b0 8
b1 7
0(
b11 '
b11 +
b11 )
b1001000100 *
#590000
b0 7
1(
b110 '
b110 +
b100 )
b1001001110 *
#600000
b1111111111111111 8
b1 7
0(
b101 '
b101 +
b101 )
b1001011000 *
#610000
b0 8
1(
b111 '
b111 +
b110 )
b1001100010 *
#620000
0(
b1 '
b1 +
b0 )
b1001101100 *
#630000
b0 7
1(
b10 '
b10 +
b1 )
b1001110110 *
#640000
b1111111111111111 8
0(
b100 '
b100 +
b10 )
b1010000000 *
#650000
b0 8
b1 7
1(
b11 '
b11 +
b11 )
b1010001010 *
#660000
b0 7
0(
b110 '
b110 +
b100 )
b1010010100 *
#670000
b1111111111111111 8
b1 7
1(
b101 '
b101 +
b101 )
b1010011110 *
#680000
b0 8
0(
b111 '
b111 +
b110 )
b1010101000 *
#690000
1(
b1 '
b1 +
b0 )
b1010110010 *
#700000
b0 7
0(
b10 '
b10 +
b1 )
b1010111100 *
#710000
b1111111111111111 8
1(
b100 '
b100 +
b10 )
b1011000110 *
#720000
b0 8
b1 7
0(
b11 '
b11 +
b11 )
b1011010000 *
#730000
b0 7
1(
b110 '
b110 +
b100 )
b1011011010 *
#740000
b1111111111111111 8
b1 7
0(
b101 '
b101 +
b101 )
b1011100100 *
#750000
b0 8
1(
b111 '
b111 +
b110 )
b1011101110 *
#760000
0(
b1 '
b1 +
b0 )
b1011111000 *
#770000
b0 7
1(
b10 '
b10 +
b1 )
b1100000010 *
#780000
b1111111111111111 8
0(
b100 '
b100 +
b10 )
b1100001100 *
#790000
b0 8
b1 7
1(
b11 '
b11 +
b11 )
b1100010110 *
#800000
b0 7
0(
b110 '
b110 +
b100 )
b1100100000 *
#810000
b1111111111111111 8
b1 7
1(
b101 '
b101 +
b101 )
b1100101010 *
#820000
b0 8
0(
b111 '
b111 +
b110 )
b1100110100 *
#830000
1(
b1 '
b1 +
b0 )
b1100111110 *
#840000
b0 7
0(
b10 '
b10 +
b1 )
b1101001000 *
#850000
b1111111111111111 8
1(
b100 '
b100 +
b10 )
b1101010010 *
#860000
b0 8
b1 7
0(
b11 '
b11 +
b11 )
b1101011100 *
#870000
b0 7
1(
b110 '
b110 +
b100 )
b1101100110 *
#880000
b1111111111111111 8
b1 7
0(
b101 '
b101 +
b101 )
b1101110000 *
#890000
b0 8
1(
b111 '
b111 +
b110 )
b1101111010 *
#900000
0(
b1 '
b1 +
b0 )
b1110000100 *
#910000
b0 7
1(
b10 '
b10 +
b1 )
b1110001110 *
#920000
b1111111111111111 8
0(
b100 '
b100 +
b10 )
b1110011000 *
#930000
b0 8
b1 7
1(
b11 '
b11 +
b11 )
b1110100010 *
#940000
b0 7
0(
b110 '
b110 +
b100 )
b1110101100 *
#950000
b1111111111111111 8
b1 7
1(
b101 '
b101 +
b101 )
b1110110110 *
#960000
b0 8
0(
b111 '
b111 +
b110 )
b1111000000 *
#970000
1(
b1 '
b1 +
b0 )
b1111001010 *
#980000
b0 7
0(
b10 '
b10 +
b1 )
b1111010100 *
#990000
b1111111111111111 8
1(
b100 '
b100 +
b10 )
b1111011110 *
#1000000
b0 8
b1 7
0(
b11 '
b11 +
b11 )
b1111101000 *
#1010000
b0 7
1(
b110 '
b110 +
b100 )
b1111110010 *
#1020000
b1111111111111111 8
b1 7
0(
b101 '
b101 +
b101 )
b1111111100 *
#1030000
b0 8
1(
b111 '
b111 +
b110 )
b10000000110 *
#1040000
0(
b1 '
b1 +
b0 )
b10000010000 *
#1050000
b0 7
1(
b10 '
b10 +
b1 )
b10000011010 *
#1060000
b1111111111111111 8
0(
b100 '
b100 +
b10 )
b10000100100 *
#1070000
b0 8
b1 7
1(
b11 '
b11 +
b11 )
b10000101110 *
#1080000
b0 7
0(
b110 '
b110 +
b100 )
b10000111000 *
#1090000
b1111111111111111 8
b1 7
1(
b101 '
b101 +
b101 )
b10001000010 *
#1100000
b0 8
0(
b111 '
b111 +
b110 )
b10001001100 *
#1110000
1(
b1 '
b1 +
b0 )
b10001010110 *
#1120000
b0 7
0(
b10 '
b10 +
b1 )
b10001100000 *
#1130000
b1111111111111111 8
1(
b100 '
b100 +
b10 )
b10001101010 *
#1140000
b0 8
b1 7
0(
b11 '
b11 +
b11 )
b10001110100 *
#1150000
b0 7
1(
b110 '
b110 +
b100 )
b10001111110 *
#1160000
b1111111111111111 8
b1 7
0(
b101 '
b101 +
b101 )
b10010001000 *
#1170000
b0 8
1(
b111 '
b111 +
b110 )
b10010010010 *
#1180000
0(
b1 '
b1 +
b0 )
b10010011100 *
#1190000
b0 7
1(
b10 '
b10 +
b1 )
b10010100110 *
#1200000
b1111111111111111 8
0(
b100 '
b100 +
b10 )
b10010110000 *
#1210000
b0 8
b1 7
1(
b11 '
b11 +
b11 )
b10010111010 *
#1220000
b0 7
0(
b110 '
b110 +
b100 )
b10011000100 *
#1230000
b1111111111111111 8
b1 7
1(
b101 '
b101 +
b101 )
b10011001110 *
#1240000
b0 8
0(
b111 '
b111 +
b110 )
b10011011000 *
#1250000
1(
b1 '
b1 +
b0 )
b10011100010 *
#1260000
b0 7
0(
b10 '
b10 +
b1 )
b10011101100 *
#1270000
b1111111111111111 8
1(
b100 '
b100 +
b10 )
b10011110110 *
#1280000
b0 8
b1 7
0(
b11 '
b11 +
b11 )
b10100000000 *
#1290000
b0 7
1(
b110 '
b110 +
b100 )
b10100001010 *
#1300000
b1111111111111111 8
b1 7
0(
b101 '
b101 +
b101 )
b10100010100 *
#1310000
b0 8
1(
b111 '
b111 +
b110 )
b10100011110 *
#1320000
0(
b1 '
b1 +
b0 )
b10100101000 *
#1330000
b0 7
1(
b10 '
b10 +
b1 )
b10100110010 *
#1340000
b1111111111111111 8
0(
b100 '
b100 +
b10 )
b10100111100 *
#1350000
b0 8
b1 7
1(
b11 '
b11 +
b11 )
b10101000110 *
#1360000
b0 7
0(
b110 '
b110 +
b100 )
b10101010000 *
#1370000
b1111111111111111 8
b1 7
1(
b101 '
b101 +
b101 )
b10101011010 *
#1380000
b0 8
0(
b111 '
b111 +
b110 )
b10101100100 *
#1390000
1(
b1 '
b1 +
b0 )
b10101101110 *
#1400000
b0 7
0(
b10 '
b10 +
b1 )
b10101111000 *
#1410000
b1111111111111111 8
1(
b100 '
b100 +
b10 )
b10110000010 *
#1420000
b0 8
b1 7
0(
b11 '
b11 +
b11 )
b10110001100 *
#1430000
b0 7
1(
b110 '
b110 +
b100 )
b10110010110 *
#1440000
b1111111111111111 8
b1 7
0(
b101 '
b101 +
b101 )
b10110100000 *
#1450000
b0 8
1(
b111 '
b111 +
b110 )
b10110101010 *
#1460000
0(
b1 '
b1 +
b0 )
b10110110100 *
#1470000
b0 7
1(
b10 '
b10 +
b1 )
b10110111110 *
#1480000
b1111111111111111 8
0(
b100 '
b100 +
b10 )
b10111001000 *
#1490000
b0 8
b1 7
1(
b11 '
b11 +
b11 )
b10111010010 *
#1500000
b0 7
0(
b110 '
b110 +
b100 )
b10111011100 *
#1510000
b1111111111111111 8
b1 7
1(
b101 '
b101 +
b101 )
b10111100110 *
#1520000
b0 8
0(
b111 '
b111 +
b110 )
b10111110000 *
#1530000
1(
b1 '
b1 +
b0 )
b10111111010 *
#1540000
b0 7
0(
b10 '
b10 +
b1 )
b11000000100 *
#1550000
b1111111111111111 8
1(
b100 '
b100 +
b10 )
b11000001110 *
#1560000
b0 8
b1 7
0(
b11 '
b11 +
b11 )
b11000011000 *
#1570000
b0 7
1(
b110 '
b110 +
b100 )
b11000100010 *
#1580000
b1111111111111111 8
b1 7
0(
b101 '
b101 +
b101 )
b11000101100 *
#1590000
b0 8
1(
b111 '
b111 +
b110 )
b11000110110 *
#1600000
0(
b1 '
b1 +
b0 )
b11001000000 *
#1610000
b0 7
1(
b10 '
b10 +
b1 )
b11001001010 *
#1620000
b1111111111111111 8
0(
b100 '
b100 +
b10 )
b11001010100 *
#1630000
b0 8
b1 7
1(
b11 '
b11 +
b11 )
b11001011110 *
#1640000
b0 7
0(
b110 '
b110 +
b100 )
b11001101000 *
#1650000
b1111111111111111 8
b1 7
1(
b101 '
b101 +
b101 )
b11001110010 *
#1660000
b0 8
0(
b111 '
b111 +
b110 )
b11001111100 *
#1670000
1(
b1 '
b1 +
b0 )
b11010000110 *
#1680000
b0 7
0(
b10 '
b10 +
b1 )
b11010010000 *
#1690000
b1111111111111111 8
1(
b100 '
b100 +
b10 )
b11010011010 *
#1700000
b0 8
b1 7
0(
b11 '
b11 +
b11 )
b11010100100 *
#1710000
b0 7
1(
b110 '
b110 +
b100 )
b11010101110 *
#1720000
b1111111111111111 8
b1 7
0(
b101 '
b101 +
b101 )
b11010111000 *
#1730000
b0 8
1(
b111 '
b111 +
b110 )
b11011000010 *
#1740000
0(
b1 '
b1 +
b0 )
b11011001100 *
#1750000
b0 7
1(
b10 '
b10 +
b1 )
b11011010110 *
#1760000
b1111111111111111 8
0(
b100 '
b100 +
b10 )
b11011100000 *
#1770000
b0 8
b1 7
1(
b11 '
b11 +
b11 )
b11011101010 *
#1780000
b0 7
0(
b110 '
b110 +
b100 )
b11011110100 *
#1790000
b1111111111111111 8
b1 7
1(
b101 '
b101 +
b101 )
b11011111110 *
#1800000
b0 8
0(
b111 '
b111 +
b110 )
b11100001000 *
#1810000
1(
b1 '
b1 +
b0 )
b11100010010 *
#1820000
b0 7
0(
b10 '
b10 +
b1 )
b11100011100 *
#1830000
b1111111111111111 8
1(
b100 '
b100 +
b10 )
b11100100110 *
#1840000
b0 8
b1 7
0(
b11 '
b11 +
b11 )
b11100110000 *
#1850000
b0 7
1(
b110 '
b110 +
b100 )
b11100111010 *
#1860000
b1111111111111111 8
b1 7
0(
b101 '
b101 +
b101 )
b11101000100 *
#1870000
b0 8
1(
b111 '
b111 +
b110 )
b11101001110 *
#1880000
0(
b1 '
b1 +
b0 )
b11101011000 *
#1890000
b0 7
1(
b10 '
b10 +
b1 )
b11101100010 *
#1900000
b1111111111111111 8
0(
b100 '
b100 +
b10 )
b11101101100 *
#1910000
b0 8
b1 7
1(
b11 '
b11 +
b11 )
b11101110110 *
#1920000
b0 7
0(
b110 '
b110 +
b100 )
b11110000000 *
#1930000
b1111111111111111 8
b1 7
1(
b101 '
b101 +
b101 )
b11110001010 *
#1940000
b0 8
0(
b111 '
b111 +
b110 )
b11110010100 *
#1950000
1(
b1 '
b1 +
b0 )
b11110011110 *
#1960000
b0 7
0(
b10 '
b10 +
b1 )
b11110101000 *
#1970000
b1111111111111111 8
1(
b100 '
b100 +
b10 )
b11110110010 *
#1980000
b0 8
b1 7
0(
b11 '
b11 +
b11 )
b11110111100 *
#1990000
b0 7
1(
b110 '
b110 +
b100 )
b11111000110 *
#2000000
b1111111111111111 8
b1 7
0(
b101 '
b101 +
b101 )
b11111010000 *
#2010000
b0 8
1(
b111 '
b111 +
b110 )
b11111011010 *
#2020000
0(
b1 '
b1 +
b0 )
b11111100100 *
#2030000
b0 7
1(
b10 '
b10 +
b1 )
b11111101110 *
#2040000
b1111111111111111 8
0(
b100 '
b100 +
b10 )
b11111111000 *
#2050000
b0 8
b1 7
1(
b11 '
b11 +
b11 )
b100000000010 *
#2060000
b0 7
0(
b110 '
b110 +
b100 )
b100000001100 *
#2070000
b1111111111111111 8
b1 7
1(
b101 '
b101 +
b101 )
b100000010110 *
#2080000
b0 8
0(
b111 '
b111 +
b110 )
b100000100000 *
#2090000
1(
b1 '
b1 +
b0 )
b100000101010 *
#2100000
b0 7
0(
b10 '
b10 +
b1 )
b100000110100 *
#2110000
b1111111111111111 8
1(
b100 '
b100 +
b10 )
b100000111110 *
#2120000
b0 8
b1 7
0(
b11 '
b11 +
b11 )
b100001001000 *
#2130000
b0 7
1(
b110 '
b110 +
b100 )
b100001010010 *
#2140000
b1111111111111111 8
b1 7
0(
b101 '
b101 +
b101 )
b100001011100 *
#2150000
b0 8
1(
b111 '
b111 +
b110 )
b100001100110 *
#2160000
0(
b1 '
b1 +
b0 )
b100001110000 *
#2170000
b0 7
1(
b10 '
b10 +
b1 )
b100001111010 *
#2180000
b1111111111111111 8
0(
b100 '
b100 +
b10 )
b100010000100 *
#2190000
b0 8
b1 7
1(
b11 '
b11 +
b11 )
b100010001110 *
#2200000
b0 7
0(
b110 '
b110 +
b100 )
b100010011000 *
#2210000
b1111111111111111 8
b1 7
1(
b101 '
b101 +
b101 )
b100010100010 *
#2220000
b0 8
0(
b111 '
b111 +
b110 )
b100010101100 *
#2230000
1(
b1 '
b1 +
b0 )
b100010110110 *
#2240000
b0 7
0(
b10 '
b10 +
b1 )
b100011000000 *
#2250000
b1111111111111111 8
1(
b100 '
b100 +
b10 )
b100011001010 *
#2260000
b0 8
b1 7
0(
b11 '
b11 +
b11 )
b100011010100 *
#2270000
b0 7
1(
b110 '
b110 +
b100 )
b100011011110 *
#2280000
b1111111111111111 8
b1 7
0(
b101 '
b101 +
b101 )
b100011101000 *
#2290000
b0 8
1(
b111 '
b111 +
b110 )
b100011110010 *
#2300000
0(
b1 '
b1 +
b0 )
b100011111100 *
#2310000
b0 7
1(
b10 '
b10 +
b1 )
b100100000110 *
#2320000
b1111111111111111 8
0(
b100 '
b100 +
b10 )
b100100010000 *
#2330000
b0 8
b1 7
1(
b11 '
b11 +
b11 )
b100100011010 *
#2340000
b0 7
0(
b110 '
b110 +
b100 )
b100100100100 *
#2350000
b1111111111111111 8
b1 7
1(
b101 '
b101 +
b101 )
b100100101110 *
#2360000
b0 8
0(
b111 '
b111 +
b110 )
b100100111000 *
#2370000
1(
b1 '
b1 +
b0 )
b100101000010 *
#2380000
b0 7
0(
b10 '
b10 +
b1 )
b100101001100 *
#2390000
b1111111111111111 8
1(
b100 '
b100 +
b10 )
b100101010110 *
#2400000
b0 8
b1 7
0(
b11 '
b11 +
b11 )
b100101100000 *
#2410000
b0 7
1(
b110 '
b110 +
b100 )
b100101101010 *
#2420000
b1111111111111111 8
b1 7
0(
b101 '
b101 +
b101 )
b100101110100 *
#2430000
b0 8
1(
b111 '
b111 +
b110 )
b100101111110 *
#2440000
0(
b1 '
b1 +
b0 )
b100110001000 *
#2450000
b0 7
1(
b10 '
b10 +
b1 )
b100110010010 *
#2460000
b1111111111111111 8
0(
b100 '
b100 +
b10 )
b100110011100 *
#2470000
b0 8
b1 7
1(
b11 '
b11 +
b11 )
b100110100110 *
#2480000
b0 7
0(
b110 '
b110 +
b100 )
b100110110000 *
#2490000
b1111111111111111 8
b1 7
1(
b101 '
b101 +
b101 )
b100110111010 *
#2500000
b0 8
0(
b111 '
b111 +
b110 )
b100111000100 *
#2510000
1(
b1 '
b1 +
b0 )
b100111001110 *
#2520000
b0 7
0(
b10 '
b10 +
b1 )
b100111011000 *
#2530000
b1111111111111111 8
1(
b100 '
b100 +
b10 )
b100111100010 *
#2540000
b0 8
b1 7
0(
b11 '
b11 +
b11 )
b100111101100 *
#2550000
b0 7
1(
b110 '
b110 +
b100 )
b100111110110 *
#2560000
b1111111111111111 8
b1 7
0(
b101 '
b101 +
b101 )
b101000000000 *
#2570000
b0 8
1(
b111 '
b111 +
b110 )
b101000001010 *
#2580000
0(
b1 '
b1 +
b0 )
b101000010100 *
#2590000
b0 7
1(
b10 '
b10 +
b1 )
b101000011110 *
#2600000
b1111111111111111 8
0(
b100 '
b100 +
b10 )
b101000101000 *
#2610000
b0 8
b1 7
1(
b11 '
b11 +
b11 )
b101000110010 *
#2620000
b0 7
0(
b110 '
b110 +
b100 )
b101000111100 *
#2630000
b1111111111111111 8
b1 7
1(
b101 '
b101 +
b101 )
b101001000110 *
#2640000
b0 8
0(
b111 '
b111 +
b110 )
b101001010000 *
#2650000
1(
b1 '
b1 +
b0 )
b101001011010 *
#2660000
b0 7
0(
b10 '
b10 +
b1 )
b101001100100 *
#2670000
b1111111111111111 8
1(
b100 '
b100 +
b10 )
b101001101110 *
#2680000
b0 8
b1 7
0(
b11 '
b11 +
b11 )
b101001111000 *
#2690000
b0 7
1(
b110 '
b110 +
b100 )
b101010000010 *
#2700000
b1111111111111111 8
b1 7
0(
b101 '
b101 +
b101 )
b101010001100 *
#2710000
b0 8
1(
b111 '
b111 +
b110 )
b101010010110 *
#2720000
0(
b1 '
b1 +
b0 )
b101010100000 *
#2730000
b0 7
1(
b10 '
b10 +
b1 )
b101010101010 *
#2740000
b1111111111111111 8
0(
b100 '
b100 +
b10 )
b101010110100 *
#2750000
b0 8
b1 7
1(
b11 '
b11 +
b11 )
b101010111110 *
#2760000
b0 7
0(
b110 '
b110 +
b100 )
b101011001000 *
#2770000
b1111111111111111 8
b1 7
1(
b101 '
b101 +
b101 )
b101011010010 *
#2780000
b0 8
0(
b111 '
b111 +
b110 )
b101011011100 *
#2790000
1(
b1 '
b1 +
b0 )
b101011100110 *
#2800000
b0 7
0(
b10 '
b10 +
b1 )
b101011110000 *
#2810000
b1111111111111111 8
1(
b100 '
b100 +
b10 )
b101011111010 *
#2820000
b0 8
b1 7
0(
b11 '
b11 +
b11 )
b101100000100 *
#2830000
b0 7
1(
b110 '
b110 +
b100 )
b101100001110 *
#2840000
b1111111111111111 8
b1 7
0(
b101 '
b101 +
b101 )
b101100011000 *
#2850000
b0 8
1(
b111 '
b111 +
b110 )
b101100100010 *
#2860000
0(
b1 '
b1 +
b0 )
b101100101100 *
#2870000
b0 7
1(
b10 '
b10 +
b1 )
b101100110110 *
#2880000
b1111111111111111 8
0(
b100 '
b100 +
b10 )
b101101000000 *
#2890000
b0 8
b1 7
1(
b11 '
b11 +
b11 )
b101101001010 *
#2900000
b0 7
0(
b110 '
b110 +
b100 )
b101101010100 *
#2910000
b1111111111111111 8
b1 7
1(
b101 '
b101 +
b101 )
b101101011110 *
#2920000
b0 8
0(
b111 '
b111 +
b110 )
b101101101000 *
#2930000
1(
b1 '
b1 +
b0 )
b101101110010 *
#2940000
b0 7
0(
b10 '
b10 +
b1 )
b101101111100 *
#2950000
b1111111111111111 8
1(
b100 '
b100 +
b10 )
b101110000110 *
#2960000
b0 8
b1 7
0(
b11 '
b11 +
b11 )
b101110010000 *
#2970000
b0 7
1(
b110 '
b110 +
b100 )
b101110011010 *
#2980000
b1111111111111111 8
b1 7
0(
b101 '
b101 +
b101 )
b101110100100 *
#2990000
b0 8
1(
b111 '
b111 +
b110 )
b101110101110 *
#3000000
0(
b1 '
b1 +
b0 )
b101110111000 *
#3010000
b0 7
1(
b10 '
b10 +
b1 )
b101111000010 *
#3020000
b1111111111111111 8
0(
b100 '
b100 +
b10 )
b101111001100 *
#3030000
b0 8
b1 7
1(
b11 '
b11 +
b11 )
b101111010110 *
#3040000
b0 7
0(
b110 '
b110 +
b100 )
b101111100000 *
#3050000
b1111111111111111 8
b1 7
1(
b101 '
b101 +
b101 )
b101111101010 *
#3060000
b0 8
0(
b111 '
b111 +
b110 )
b101111110100 *
#3070000
1(
b1 '
b1 +
b0 )
b101111111110 *
#3080000
b0 7
0(
b10 '
b10 +
b1 )
b110000001000 *
#3090000
b1111111111111111 8
1(
b100 '
b100 +
b10 )
b110000010010 *
#3100000
b0 8
b1 7
0(
b11 '
b11 +
b11 )
b110000011100 *
#3110000
b0 7
1(
b110 '
b110 +
b100 )
b110000100110 *
#3120000
b1111111111111111 8
b1 7
0(
b101 '
b101 +
b101 )
b110000110000 *
#3130000
b0 8
1(
b111 '
b111 +
b110 )
b110000111010 *
#3140000
0(
b1 '
b1 +
b0 )
b110001000100 *
#3150000
b0 7
1(
b10 '
b10 +
b1 )
b110001001110 *
#3160000
b1111111111111111 8
0(
b100 '
b100 +
b10 )
b110001011000 *
#3170000
b0 8
b1 7
1(
b11 '
b11 +
b11 )
b110001100010 *
#3180000
b0 7
0(
b110 '
b110 +
b100 )
b110001101100 *
#3190000
b1111111111111111 8
b1 7
1(
b101 '
b101 +
b101 )
b110001110110 *
#3200000
b0 8
0(
b111 '
b111 +
b110 )
b110010000000 *
#3210000
1(
b1 '
b1 +
b0 )
b110010001010 *
#3220000
b0 7
0(
b10 '
b10 +
b1 )
b110010010100 *
#3230000
b1111111111111111 8
1(
b100 '
b100 +
b10 )
b110010011110 *
#3240000
b0 8
b1 7
0(
b11 '
b11 +
b11 )
b110010101000 *
#3250000
b0 7
1(
b110 '
b110 +
b100 )
b110010110010 *
#3260000
b1111111111111111 8
b1 7
0(
b101 '
b101 +
b101 )
b110010111100 *
#3270000
b0 8
1(
b111 '
b111 +
b110 )
b110011000110 *
#3280000
0(
b1 '
b1 +
b0 )
b110011010000 *
#3290000
b0 7
1(
b10 '
b10 +
b1 )
b110011011010 *
#3300000
b1111111111111111 8
0(
b100 '
b100 +
b10 )
b110011100100 *
#3310000
b0 8
b1 7
1(
b11 '
b11 +
b11 )
b110011101110 *
#3320000
b0 7
0(
b110 '
b110 +
b100 )
b110011111000 *
#3330000
b1111111111111111 8
b1 7
1(
b101 '
b101 +
b101 )
b110100000010 *
#3340000
b0 8
0(
b111 '
b111 +
b110 )
b110100001100 *
#3350000
1(
b1 '
b1 +
b0 )
b110100010110 *
#3360000
b0 7
0(
b10 '
b10 +
b1 )
b110100100000 *
#3370000
b1111111111111111 8
1(
b100 '
b100 +
b10 )
b110100101010 *
#3380000
b0 8
b1 7
0(
b11 '
b11 +
b11 )
b110100110100 *
#3390000
b0 7
1(
b110 '
b110 +
b100 )
b110100111110 *
#3400000
b1111111111111111 8
b1 7
0(
b101 '
b101 +
b101 )
b110101001000 *
#3410000
b0 8
1(
b111 '
b111 +
b110 )
b110101010010 *
#3420000
0(
b1 '
b1 +
b0 )
b110101011100 *
#3430000
b0 7
1(
b10 '
b10 +
b1 )
b110101100110 *
#3440000
b1111111111111111 8
0(
b100 '
b100 +
b10 )
b110101110000 *
#3450000
b0 8
b1 7
1(
b11 '
b11 +
b11 )
b110101111010 *
#3460000
b0 7
0(
b110 '
b110 +
b100 )
b110110000100 *
#3470000
b1111111111111111 8
b1 7
1(
b101 '
b101 +
b101 )
b110110001110 *
#3480000
b0 8
0(
b111 '
b111 +
b110 )
b110110011000 *
#3490000
1(
b1 '
b1 +
b0 )
b110110100010 *
#3500000
b0 7
0(
b10 '
b10 +
b1 )
b110110101100 *
#3510000
b1111111111111111 8
1(
b100 '
b100 +
b10 )
b110110110110 *
#3520000
b0 8
b1 7
0(
b11 '
b11 +
b11 )
b110111000000 *
#3530000
b0 7
1(
b110 '
b110 +
b100 )
b110111001010 *
#3540000
b1111111111111111 8
b1 7
0(
b101 '
b101 +
b101 )
b110111010100 *
#3550000
b0 8
1(
b111 '
b111 +
b110 )
b110111011110 *
#3560000
0(
b1 '
b1 +
b0 )
b110111101000 *
#3570000
b0 7
1(
b10 '
b10 +
b1 )
b110111110010 *
#3580000
b1111111111111111 8
0(
b100 '
b100 +
b10 )
b110111111100 *
#3590000
b0 8
b1 7
1(
b11 '
b11 +
b11 )
b111000000110 *
#3600000
b0 7
0(
b110 '
b110 +
b100 )
b111000010000 *
#3610000
b1111111111111111 8
b1 7
1(
b101 '
b101 +
b101 )
b111000011010 *
#3620000
b0 8
0(
b111 '
b111 +
b110 )
b111000100100 *
#3630000
1(
b1 '
b1 +
b0 )
b111000101110 *
#3640000
b0 7
0(
b10 '
b10 +
b1 )
b111000111000 *
#3650000
b1111111111111111 8
1(
b100 '
b100 +
b10 )
b111001000010 *
#3660000
b0 8
b1 7
0(
b11 '
b11 +
b11 )
b111001001100 *
#3670000
b0 7
1(
b110 '
b110 +
b100 )
b111001010110 *
#3680000
b1111111111111111 8
b1 7
0(
b101 '
b101 +
b101 )
b111001100000 *
#3690000
b0 8
1(
b111 '
b111 +
b110 )
b111001101010 *
#3700000
0(
b1 '
b1 +
b0 )
b111001110100 *
#3710000
b0 7
1(
b10 '
b10 +
b1 )
b111001111110 *
#3720000
b1111111111111111 8
0(
b100 '
b100 +
b10 )
b111010001000 *
#3730000
b0 8
b1 7
1(
b11 '
b11 +
b11 )
b111010010010 *
#3740000
b0 7
0(
b110 '
b110 +
b100 )
b111010011100 *
