pmsm_motor_rtl/module_pmsm_v4_tb.vcd
$date
	Sun Apr 02 07:24:46 2023
$end
$version
	Icarus Verilog
$end
$timescale
	1ps
$end
$scope module module_pmsm_v4_tb $end
$var wire 16 ! torque [15:0] $end
$var wire 16 " speed [15:0] $end
$var wire 16 # I_c [15:0] $end
$var wire 16 $ I_b [15:0] $end
$var wire 16 % I_a [15:0] $end
$var reg 8 & DC_link_voltage [7:0] $end
$var reg 3 ' V_phase [2:0] $end
$var reg 1 ( clk $end
$var reg 16 ) position [15:0] $end
$var integer 32 * pwm_counter [31:0] $end
$var integer 32 + pwm_period [31:0] $end
$var integer 32 , sector [31:0] $end
$scope module dut $end
$var wire 8 - DC_link_voltage [7:0] $end
$var wire 3 . V_phase [2:0] $end
$var wire 1 ( clk $end
$var wire 16 / position [15:0] $end
$var reg 16 0 I_a [15:0] $end
$var reg 16 1 I_alpha [15:0] $end
$var reg 16 2 I_b [15:0] $end
$var reg 16 3 I_beta [15:0] $end
$var reg 16 4 I_c [15:0] $end
$var reg 16 5 I_d [15:0] $end
$var reg 16 6 I_q [15:0] $end
$var reg 16 7 V_alpha [15:0] $end
$var reg 16 8 V_beta [15:0] $end
$var reg 16 9 V_d [15:0] $end
$var reg 16 : V_q [15:0] $end
$var reg 16 ; alpha [15:0] $end
$var reg 16 < beta [15:0] $end
$var reg 16 = omega [15:0] $end
$var reg 16 > rotor_position [15:0] $end
$var reg 16 ? speed [15:0] $end
$var reg 16 @ theta [15:0] $end
$var reg 16 A torque [15:0] $end
$upscope $end
$upscope $end
$enddefinitions $end
#0
$dumpvars
bx A
bx @
bx ?
bx >
bx =
b0 <
b0 ;
b0 :
b0 9
b0 8
b0 7
b0 6
b0 5
bx 4
b0 3
bx 2
b0 1
bx 0
bx /
b0 .
b110000 -
b0 ,
b1010 +
b0 *
bx )
0(
b0 '
b110000 &
bx %
bx $
bx #
bx "
bx !
$end
#50000000
b1111111111111111 :
b1111111111111111 8
b1111111111111111 <
b1 *
b100 '
b100 .
#50001000
b10 *
#50002000
b11 *
#50003000
b100 *
#50004000
b101 *
#50005000
b110 *
#50006000
b111 *
#50007000
b1000 *
#50008000
b1001 *
#50009000
b1 ,
b0 *
#50010000
b0 :
b0 8
b0 <
b1 *
b110 '
b110 .
#50011000
b10 *
#50012000
b11 *
#50013000
b100 *
#50014000
b101 *
#50015000
b110 *
#50016000
b111 *
#50017000
b1000 *
#50018000
b1001 *
#50019000
b10 ,
b0 *
#50020000
b1 *
b10 '
b10 .
#50021000
b10 *
#50022000
b11 *
#50023000
b100 *
#50024000
b101 *
#50025000
b110 *
#50026000
b111 *
#50027000
b1000 *
#50028000
b1001 *
#50029000
b11 ,
b0 *
#50030000
b1 9
b1 7
b1 ;
b1 *
b11 '
b11 .
#50031000
b10 *
#50032000
b11 *
#50033000
b100 *
#50034000
b101 *
#50035000
b110 *
#50036000
b111 *
#50037000
b1000 *
#50038000
b1001 *
#50039000
b100 ,
b0 *
#50040000
b1 *
b1 '
b1 .
#50041000
b10 *
#50042000
b11 *
#50043000
b100 *
#50044000
b101 *
#50045000
b110 *
#50046000
b111 *
#50047000
b1000 *
#50048000
b1001 *
#50049000
b101 ,
b0 *
#50050000
b1111111111111111 :
b1111111111111111 8
b1111111111111111 <
b1 *
b101 '
b101 .
#50051000
b10 *
#50052000
b11 *
#50053000
b100 *
#50054000
b101 *
#50055000
b110 *
#50056000
b111 *
#50057000
b1000 *
#50058000
b1001 *
#50059000
b0 ,
b0 *
#50060000
b0 9
b0 7
b0 ;
b1 *
b100 '
b100 .
#50061000
b10 *
#50062000
b11 *
#50063000
b100 *
#50064000
b101 *
#50065000
b110 *
#50066000
b111 *
#50067000
b1000 *
#50068000
b1001 *
#50069000
b1 ,
b0 *
#50070000
b0 :
b0 8
b0 <
b1 *
b110 '
b110 .
#50071000
b10 *
#50072000
b11 *
#50073000
b100 *
#50074000
b101 *
#50075000
b110 *
#50076000
b111 *
#50077000
b1000 *
#50078000
b1001 *
#50079000
b10 ,
b0 *
#50080000
b1 *
b10 '
b10 .
#50081000
b10 *
#50082000
b11 *
#50083000
b100 *
#50084000
b101 *
#50085000
b110 *
#50086000
b111 *
#50087000
b1000 *
#50088000
b1001 *
#50089000
b11 ,
b0 *
#50090000
b1 9
b1 7
b1 ;
b1 *
b11 '
b11 .
#50091000
b10 *
#50092000
b11 *
#50093000
b100 *
#50094000
b101 *
#50095000
b110 *
#50096000
b111 *
#50097000
b1000 *
#50098000
b1001 *
#50099000
b100 ,
b0 *
#50100000
b1 *
b1 '
b1 .
#50101000
b10 *
#50102000
b11 *
#50103000
b100 *
#50104000
b101 *
#50105000
b110 *
#50106000
b111 *
#50107000
b1000 *
#50108000
b1001 *
#50109000
b101 ,
b0 *
#50110000
b1111111111111111 :
b1111111111111111 8
b1111111111111111 <
b1 *
b101 '
b101 .
#50111000
b10 *
#50112000
b11 *
#50113000
b100 *
#50114000
b101 *
#50115000
b110 *
#50116000
b111 *
#50117000
b1000 *
#50118000
b1001 *
#50119000
b0 ,
b0 *
#50120000
b0 9
b0 7
b0 ;
b1 *
b100 '
b100 .
#50121000
b10 *
#50122000
b11 *
#50123000
b100 *
#50124000
b101 *
#50125000
b110 *
#50126000
b111 *
#50127000
b1000 *
#50128000
b1001 *
#50129000
b1 ,
b0 *
#50130000
b0 :
b0 8
b0 <
b1 *
b110 '
b110 .
#50131000
b10 *
#50132000
b11 *
#50133000
b100 *
#50134000
b101 *
#50135000
b110 *
#50136000
b111 *
#50137000
b1000 *
#50138000
b1001 *
#50139000
b10 ,
b0 *
#50140000
b1 *
b10 '
b10 .
#50141000
b10 *
#50142000
b11 *
#50143000
b100 *
#50144000
b101 *
#50145000
b110 *
#50146000
b111 *
#50147000
b1000 *
#50148000
b1001 *
#50149000
b11 ,
b0 *
#50150000
b1 9
b1 7
b1 ;
b1 *
b11 '
b11 .
#50151000
b10 *
#50152000
b11 *
#50153000
b100 *
#50154000
b101 *
#50155000
b110 *
#50156000
b111 *
#50157000
b1000 *
#50158000
b1001 *
#50159000
b100 ,
b0 *
#50160000
b1 *
b1 '
b1 .
#50161000
b10 *
#50162000
b11 *
#50163000
b100 *
#50164000
b101 *
#50165000
b110 *
#50166000
b111 *
#50167000
b1000 *
#50168000
b1001 *
#50169000
b101 ,
b0 *
#50170000
b1111111111111111 :
b1111111111111111 8
b1111111111111111 <
b1 *
b101 '
b101 .
#50171000
b10 *
#50172000
b11 *
#50173000
b100 *
#50174000
b101 *
#50175000
b110 *
#50176000
b111 *
#50177000
b1000 *
#50178000
b1001 *
#50179000
b0 ,
b0 *
#50180000
b0 9
b0 7
b0 ;
b1 *
b100 '
b100 .
#50181000
b10 *
#50182000
b11 *
#50183000
b100 *
#50184000
b101 *
#50185000
b110 *
#50186000
b111 *
#50187000
b1000 *
#50188000
b1001 *
#50189000
b1 ,
b0 *
#50190000
b0 :
b0 8
b0 <
b1 *
b110 '
b110 .
#50191000
b10 *
#50192000
b11 *
#50193000
b100 *
#50194000
b101 *
#50195000
b110 *
#50196000
b111 *
#50197000
b1000 *
#50198000
b1001 *
#50199000
b10 ,
b0 *
#50200000
b1 *
b10 '
b10 .
#50201000
b10 *
#50202000
b11 *
#50203000
b100 *
#50204000
b101 *
#50205000
b110 *
#50206000
b111 *
#50207000
b1000 *
#50208000
b1001 *
#50209000
b11 ,
b0 *
#50210000
b1 9
b1 7
b1 ;
b1 *
b11 '
b11 .
#50211000
b10 *
#50212000
b11 *
#50213000
b100 *
#50214000
b101 *
#50215000
b110 *
#50216000
b111 *
#50217000
b1000 *
#50218000
b1001 *
#50219000
b100 ,
b0 *
#50220000
b1 *
b1 '
b1 .
#50221000
b10 *
#50222000
b11 *
#50223000
b100 *
#50224000
b101 *
#50225000
b110 *
#50226000
b111 *
#50227000
b1000 *
#50228000
b1001 *
#50229000
b101 ,
b0 *
#50230000
b1111111111111111 :
b1111111111111111 8
b1111111111111111 <
b1 *
b101 '
b101 .
#50231000
b10 *
#50232000
b11 *
#50233000
b100 *
#50234000
b101 *
#50235000
b110 *
#50236000
b111 *
#50237000
b1000 *
#50238000
b1001 *
#50239000
b0 ,
b0 *
#50240000
b0 9
b0 7
b0 ;
b1 *
b100 '
b100 .
#50241000
b10 *
#50242000
b11 *
#50243000
b100 *
#50244000
b101 *
#50245000
b110 *
#50246000
b111 *
#50247000
b1000 *
#50248000
b1001 *
#50249000
b1 ,
b0 *
#50250000
b0 :
b0 8
b0 <
b1 *
b110 '
b110 .
#50251000
b10 *
#50252000
b11 *
#50253000
b100 *
#50254000
b101 *
#50255000
b110 *
#50256000
b111 *
#50257000
b1000 *
#50258000
b1001 *
#50259000
b10 ,
b0 *
#50260000
b1 *
b10 '
b10 .
#50261000
b10 *
#50262000
b11 *
#50263000
b100 *
#50264000
b101 *
#50265000
b110 *
#50266000
b111 *
#50267000
b1000 *
#50268000
b1001 *
#50269000
b11 ,
b0 *
#50270000
b1 9
b1 7
b1 ;
b1 *
b11 '
b11 .
#50271000
b10 *
#50272000
b11 *
#50273000
b100 *
#50274000
b101 *
#50275000
b110 *
#50276000
b111 *
#50277000
b1000 *
#50278000
b1001 *
#50279000
b100 ,
b0 *
#50280000
b1 *
b1 '
b1 .
#50281000
b10 *
#50282000
b11 *
#50283000
b100 *
#50284000
b101 *
#50285000
b110 *
#50286000
b111 *
#50287000
b1000 *
#50288000
b1001 *
#50289000
b101 ,
b0 *
#50290000
b1111111111111111 :
b1111111111111111 8
b1111111111111111 <
b1 *
b101 '
b101 .
#50291000
b10 *
#50292000
b11 *
#50293000
b100 *
#50294000
b101 *
#50295000
b110 *
#50296000
b111 *
#50297000
b1000 *
#50298000
b1001 *
#50299000
b0 ,
b0 *
#50300000
b0 9
b0 7
b0 ;
b1 *
b100 '
b100 .
#50301000
b10 *
#50302000
b11 *
#50303000
b100 *
#50304000
b101 *
#50305000
b110 *
#50306000
b111 *
#50307000
b1000 *
#50308000
b1001 *
#50309000
b1 ,
b0 *
#50310000
b0 :
b0 8
b0 <
b1 *
b110 '
b110 .
#50311000
b10 *
#50312000
b11 *
#50313000
b100 *
#50314000
b101 *
#50315000
b110 *
#50316000
b111 *
#50317000
b1000 *
#50318000
b1001 *
#50319000
b10 ,
b0 *
#50320000
b1 *
b10 '
b10 .
#50321000
b10 *
#50322000
b11 *
#50323000
b100 *
#50324000
b101 *
#50325000
b110 *
#50326000
b111 *
#50327000
b1000 *
#50328000
b1001 *
#50329000
b11 ,
b0 *
#50330000
b1 9
b1 7
b1 ;
b1 *
b11 '
b11 .
#50331000
b10 *
#50332000
b11 *
#50333000
b100 *
#50334000
b101 *
#50335000
b110 *
#50336000
b111 *
#50337000
b1000 *
#50338000
b1001 *
#50339000
b100 ,
b0 *
#50340000
b1 *
b1 '
b1 .
#50341000
b10 *
#50342000
b11 *
#50343000
b100 *
#50344000
b101 *
#50345000
b110 *
#50346000
b111 *
#50347000
b1000 *
#50348000
b1001 *
#50349000
b101 ,
b0 *
#50350000
b1111111111111111 :
b1111111111111111 8
b1111111111111111 <
b1 *
b101 '
b101 .
#50351000
b10 *
#50352000
b11 *
#50353000
b100 *
#50354000
b101 *
#50355000
b110 *
#50356000
b111 *
#50357000
b1000 *
#50358000
b1001 *
#50359000
b0 ,
b0 *
#50360000
b0 9
b0 7
b0 ;
b1 *
b100 '
b100 .
#50361000
b10 *
#50362000
b11 *
#50363000
b100 *
#50364000
b101 *
#50365000
b110 *
#50366000
b111 *
#50367000
b1000 *
#50368000
b1001 *
#50369000
b1 ,
b0 *
#50370000
b0 :
b0 8
b0 <
b1 *
b110 '
b110 .
#50371000
b10 *
#50372000
b11 *
#50373000
b100 *
#50374000
b101 *
#50375000
b110 *
#50376000
b111 *
#50377000
b1000 *
#50378000
b1001 *
#50379000
b10 ,
b0 *
#50380000
b1 *
b10 '
b10 .
#50381000
b10 *
#50382000
b11 *
#50383000
b100 *
#50384000
b101 *
#50385000
b110 *
#50386000
b111 *
#50387000
b1000 *
#50388000
b1001 *
#50389000
b11 ,
b0 *
#50390000
b1 9
b1 7
b1 ;
b1 *
b11 '
b11 .
#50391000
b10 *
#50392000
b11 *
#50393000
b100 *
#50394000
b101 *
#50395000
b110 *
#50396000
b111 *
#50397000
b1000 *
#50398000
b1001 *
#50399000
b100 ,
b0 *
#50400000
b1 *
b1 '
b1 .
#50401000
b10 *
#50402000
b11 *
#50403000
b100 *
#50404000
b101 *
#50405000
b110 *
#50406000
b111 *
#50407000
b1000 *
#50408000
b1001 *
#50409000
b101 ,
b0 *
#50410000
b1111111111111111 :
b1111111111111111 8
b1111111111111111 <
b1 *
b101 '
b101 .
#50411000
b10 *
#50412000
b11 *
#50413000
b100 *
#50414000
b101 *
#50415000
b110 *
#50416000
b111 *
#50417000
b1000 *
#50418000
b1001 *
#50419000
b0 ,
b0 *
#50420000
b0 9
b0 7
b0 ;
b1 *
b100 '
b100 .
#50421000
b10 *
#50422000
b11 *
#50423000
b100 *
#50424000
b101 *
#50425000
b110 *
#50426000
b111 *
#50427000
b1000 *
#50428000
b1001 *
#50429000
b1 ,
b0 *
#50430000
b0 :
b0 8
b0 <
b1 *
b110 '
b110 .
#50431000
b10 *
#50432000
b11 *
#50433000
b100 *
#50434000
b101 *
#50435000
b110 *
#50436000
b111 *
#50437000
b1000 *
#50438000
b1001 *
#50439000
b10 ,
b0 *
#50440000
b1 *
b10 '
b10 .
#50441000
b10 *
#50442000
b11 *
#50443000
b100 *
#50444000
b101 *
#50445000
b110 *
#50446000
b111 *
#50447000
b1000 *
#50448000
b1001 *
#50449000
b11 ,
b0 *
#50450000
b1 9
b1 7
b1 ;
b1 *
b11 '
b11 .
#50451000
b10 *
#50452000
b11 *
#50453000
b100 *
#50454000
b101 *
#50455000
b110 *
#50456000
b111 *
#50457000
b1000 *
#50458000
b1001 *
#50459000
b100 ,
b0 *
#50460000
b1 *
b1 '
b1 .
#50461000
b10 *
#50462000
b11 *
#50463000
b100 *
#50464000
b101 *
#50465000
b110 *
#50466000
b111 *
#50467000
b1000 *
#50468000
b1001 *
#50469000
b101 ,
b0 *
#50470000
b1111111111111111 :
b1111111111111111 8
b1111111111111111 <
b1 *
b101 '
b101 .
#50471000
b10 *
#50472000
b11 *
#50473000
b100 *
#50474000
b101 *
#50475000
b110 *
#50476000
b111 *
#50477000
b1000 *
#50478000
b1001 *
#50479000
b0 ,
b0 *
#50480000
b0 9
b0 7
b0 ;
b1 *
b100 '
b100 .
#50481000
b10 *
#50482000
b11 *
#50483000
b100 *
#50484000
b101 *
#50485000
b110 *
#50486000
b111 *
#50487000
b1000 *
#50488000
b1001 *
#50489000
b1 ,
b0 *
#50490000
b0 :
b0 8
b0 <
b1 *
b110 '
b110 .
#50491000
b10 *
#50492000
b11 *
#50493000
b100 *
#50494000
b101 *
#50495000
b110 *
#50496000
b111 *
#50497000
b1000 *
#50498000
b1001 *
#50499000
b10 ,
b0 *
