pmsm_motor_rtl/module_pmsm_v3_tb.vcd
$date
	Sat Apr 01 12:56:30 2023
$end
$version
	Icarus Verilog
$end
$timescale
	1ps
$end
$scope module module_pmsm_v3_tb $end
$var wire 16 ! torque [15:0] $end
$var wire 16 " speed [15:0] $end
$var wire 16 # position [15:0] $end
$var wire 16 $ I_c [15:0] $end
$var wire 16 % I_b [15:0] $end
$var wire 16 & I_a [15:0] $end
$var reg 3 ' V_phase [2:0] $end
$var reg 1 ( clk $end
$var reg 16 ) position_in [15:0] $end
$var integer 32 * counter [31:0] $end
$var integer 32 + elapsed_time [31:0] $end
$scope module dut $end
$var wire 3 , V_phase [2:0] $end
$var wire 1 ( clk $end
$var wire 16 - position_in [15:0] $end
$var reg 16 . I_a [15:0] $end
$var reg 16 / I_alpha [15:0] $end
$var reg 16 0 I_b [15:0] $end
$var reg 16 1 I_beta [15:0] $end
$var reg 16 2 I_c [15:0] $end
$var reg 16 3 I_d [15:0] $end
$var reg 16 4 I_q [15:0] $end
$var reg 16 5 V_alpha [15:0] $end
$var reg 16 6 V_beta [15:0] $end
$var reg 16 7 V_d [15:0] $end
$var reg 16 8 V_q [15:0] $end
$var reg 16 9 alpha [15:0] $end
$var reg 16 : beta [15:0] $end
$var reg 16 ; omega [15:0] $end
$var reg 16 < position [15:0] $end
$var reg 16 = speed [15:0] $end
$var reg 16 > theta [15:0] $end
$var reg 16 ? torque [15:0] $end
$upscope $end
$upscope $end
$enddefinitions $end
#0
$dumpvars
bx ?
bx >
bx =
bx <
bx ;
b0 :
b0 9
bx 8
bx 7
bx 6
bx 5
bx 4
bx 3
bx 2
bx 1
bx 0
bx /
bx .
bz -
b10 ,
b0 +
b1 *
b1000000000000 )
0(
b10 '
bx &
bx %
bx $
bx #
bx "
bx !
$end
#5000
1(
#10000
0(
#15000
1(
#20000
b1111111111111111 :
0(
b100 '
b100 ,
b10 *
b10100 +
#25000
1(
#30000
0(
#35000
1(
#40000
b0 :
b1 9
0(
b11 '
b11 ,
b11 *
b101000 +
#45000
1(
#50000
0(
#55000
1(
#60000
b0 9
0(
b110 '
b110 ,
b100 *
b111100 +
#65000
1(
#70000
0(
#75000
1(
#80000
b1111111111111111 :
b1 9
0(
b101 '
b101 ,
b101 *
b1010000 +
#85000
1(
#90000
0(
#95000
1(
#100000
b0 :
0(
b111 '
b111 ,
b110 *
b1100100 +
#105000
1(
#110000
0(
#115000
1(
#120000
0(
b1 '
b1 ,
b0 *
b1111000 +
#125000
1(
#130000
0(
#135000
1(
#140000
b0 9
0(
b10 '
b10 ,
b1 *
b10001100 +
#145000
1(
#150000
0(
#155000
1(
#160000
b1111111111111111 :
0(
b100 '
b100 ,
b10 *
b10100000 +
#165000
1(
#170000
0(
#175000
1(
#180000
b0 :
b1 9
0(
b11 '
b11 ,
b11 *
b10110100 +
#185000
1(
#190000
0(
#195000
1(
#200000
b0 9
0(
b110 '
b110 ,
b100 *
b11001000 +
#205000
1(
#210000
0(
#215000
1(
#220000
b1111111111111111 :
b1 9
0(
b101 '
b101 ,
b101 *
b11011100 +
#225000
1(
#230000
0(
#235000
1(
#240000
b0 :
0(
b111 '
b111 ,
b110 *
b11110000 +
#245000
1(
#250000
0(
#255000
1(
#260000
0(
b1 '
b1 ,
b0 *
b100000100 +
#265000
1(
#270000
0(
#275000
1(
#280000
b0 9
0(
b10 '
b10 ,
b1 *
b100011000 +
#285000
1(
#290000
0(
#295000
1(
#300000
b1111111111111111 :
0(
b100 '
b100 ,
b10 *
b100101100 +
#305000
1(
#310000
0(
#315000
1(
#320000
b0 :
b1 9
0(
b11 '
b11 ,
b11 *
b101000000 +
#325000
1(
#330000
0(
#335000
1(
#340000
b0 9
0(
b110 '
b110 ,
b100 *
b101010100 +
#345000
1(
#350000
0(
#355000
1(
#360000
b1111111111111111 :
b1 9
0(
b101 '
b101 ,
b101 *
b101101000 +
#365000
1(
#370000
0(
#375000
1(
#380000
b0 :
0(
b111 '
b111 ,
b110 *
b101111100 +
#385000
1(
#390000
0(
#395000
1(
#400000
0(
b1 '
b1 ,
b0 *
b110010000 +
#405000
1(
#410000
0(
#415000
1(
#420000
b0 9
0(
b10 '
b10 ,
b1 *
b110100100 +
#425000
1(
#430000
0(
#435000
1(
#440000
b1111111111111111 :
0(
b100 '
b100 ,
b10 *
b110111000 +
#445000
1(
#450000
0(
#455000
1(
#460000
b0 :
b1 9
0(
b11 '
b11 ,
b11 *
b111001100 +
#465000
1(
#470000
0(
#475000
1(
#480000
b0 9
0(
b110 '
b110 ,
b100 *
b111100000 +
#485000
1(
#490000
0(
#495000
1(
#500000
b1111111111111111 :
b1 9
0(
b101 '
b101 ,
b101 *
b111110100 +
#505000
1(
#510000
0(
#515000
1(
#520000
b0 :
0(
b111 '
b111 ,
b110 *
b1000001000 +
#525000
1(
#530000
0(
#535000
1(
#540000
0(
b1 '
b1 ,
b0 *
b1000011100 +
#545000
1(
#550000
0(
#555000
1(
#560000
b0 9
0(
b10 '
b10 ,
b1 *
b1000110000 +
#565000
1(
#570000
0(
#575000
1(
#580000
b1111111111111111 :
0(
b100 '
b100 ,
b10 *
b1001000100 +
#585000
1(
#590000
0(
#595000
1(
#600000
b0 :
b1 9
0(
b11 '
b11 ,
b11 *
b1001011000 +
#605000
1(
#610000
0(
#615000
1(
#620000
b0 9
0(
b110 '
b110 ,
b100 *
b1001101100 +
#625000
1(
#630000
0(
#635000
1(
#640000
b1111111111111111 :
b1 9
0(
b101 '
b101 ,
b101 *
b1010000000 +
#645000
1(
#650000
0(
#655000
1(
#660000
b0 :
0(
b111 '
b111 ,
b110 *
b1010010100 +
#665000
1(
#670000
0(
#675000
1(
#680000
0(
b1 '
b1 ,
b0 *
b1010101000 +
#685000
1(
#690000
0(
#695000
1(
#700000
b0 9
0(
b10 '
b10 ,
b1 *
b1010111100 +
#705000
1(
#710000
0(
#715000
1(
#720000
b1111111111111111 :
0(
b100 '
b100 ,
b10 *
b1011010000 +
#725000
1(
#730000
0(
#735000
1(
#740000
b0 :
b1 9
0(
b11 '
b11 ,
b11 *
b1011100100 +
#745000
1(
#750000
0(
#755000
1(
#760000
b0 9
0(
b110 '
b110 ,
b100 *
b1011111000 +
#765000
1(
#770000
0(
#775000
1(
#780000
b1111111111111111 :
b1 9
0(
b101 '
b101 ,
b101 *
b1100001100 +
#785000
1(
#790000
0(
#795000
1(
#800000
b0 :
0(
b111 '
b111 ,
b110 *
b1100100000 +
#805000
1(
#810000
0(
#815000
1(
#820000
0(
b1 '
b1 ,
b0 *
b1100110100 +
#825000
1(
#830000
0(
#835000
1(
#840000
b0 9
0(
b10 '
b10 ,
b1 *
b1101001000 +
#845000
1(
#850000
0(
#855000
1(
#860000
b1111111111111111 :
0(
b100 '
b100 ,
b10 *
b1101011100 +
#865000
1(
#870000
0(
#875000
1(
#880000
b0 :
b1 9
0(
b11 '
b11 ,
b11 *
b1101110000 +
#885000
1(
#890000
0(
#895000
1(
#900000
b0 9
0(
b110 '
b110 ,
b100 *
b1110000100 +
#905000
1(
#910000
0(
#915000
1(
#920000
b1111111111111111 :
b1 9
0(
b101 '
b101 ,
b101 *
b1110011000 +
#925000
1(
#930000
0(
#935000
1(
#940000
b0 :
0(
b111 '
b111 ,
b110 *
b1110101100 +
#945000
1(
#950000
0(
#955000
1(
#960000
0(
b1 '
b1 ,
b0 *
b1111000000 +
#965000
1(
#970000
0(
#975000
1(
#980000
b0 9
0(
b10 '
b10 ,
b1 *
b1111010100 +
#985000
1(
#990000
0(
#995000
1(
#1000000
b1111111111111111 :
0(
b100 '
b100 ,
b10 *
b1111101000 +
#1005000
1(
#1010000
0(
#1015000
1(
#1020000
b0 :
b1 9
0(
b11 '
b11 ,
b11 *
b1111111100 +
#1025000
1(
#1030000
0(
#1035000
1(
#1040000
b0 9
0(
b110 '
b110 ,
b100 *
b10000010000 +
#1045000
1(
#1050000
0(
#1055000
1(
#1060000
b1111111111111111 :
b1 9
0(
b101 '
b101 ,
b101 *
b10000100100 +
#1065000
1(
#1070000
0(
#1075000
1(
#1080000
b0 :
0(
b111 '
b111 ,
b110 *
b10000111000 +
#1085000
1(
#1090000
0(
#1095000
1(
#1100000
0(
b1 '
b1 ,
b0 *
b10001001100 +
#1105000
1(
#1110000
0(
#1115000
1(
#1120000
b0 9
0(
b10 '
b10 ,
b1 *
b10001100000 +
#1125000
1(
#1130000
0(
#1135000
1(
#1140000
b1111111111111111 :
0(
b100 '
b100 ,
b10 *
b10001110100 +
#1145000
1(
#1150000
0(
#1155000
1(
#1160000
b0 :
b1 9
0(
b11 '
b11 ,
b11 *
b10010001000 +
#1165000
1(
#1170000
0(
#1175000
1(
#1180000
b0 9
0(
b110 '
b110 ,
b100 *
b10010011100 +
#1185000
1(
#1190000
0(
#1195000
1(
#1200000
b1111111111111111 :
b1 9
0(
b101 '
b101 ,
b101 *
b10010110000 +
#1205000
1(
#1210000
0(
#1215000
1(
#1220000
b0 :
0(
b111 '
b111 ,
b110 *
b10011000100 +
#1225000
1(
#1230000
0(
#1235000
1(
#1240000
0(
b1 '
b1 ,
b0 *
b10011011000 +
#1245000
1(
#1250000
0(
#1255000
1(
#1260000
b0 9
0(
b10 '
b10 ,
b1 *
b10011101100 +
#1265000
1(
#1270000
0(
#1275000
1(
#1280000
b1111111111111111 :
0(
b100 '
b100 ,
b10 *
b10100000000 +
#1285000
1(
#1290000
0(
#1295000
1(
#1300000
b0 :
b1 9
0(
b11 '
b11 ,
b11 *
b10100010100 +
#1305000
1(
#1310000
0(
#1315000
1(
#1320000
b0 9
0(
b110 '
b110 ,
b100 *
b10100101000 +
#1325000
1(
#1330000
0(
#1335000
1(
#1340000
b1111111111111111 :
b1 9
0(
b101 '
b101 ,
b101 *
b10100111100 +
#1345000
1(
#1350000
0(
#1355000
1(
#1360000
b0 :
0(
b111 '
b111 ,
b110 *
b10101010000 +
#1365000
1(
#1370000
0(
#1375000
1(
#1380000
0(
b1 '
b1 ,
b0 *
b10101100100 +
#1385000
1(
#1390000
0(
#1395000
1(
#1400000
b0 9
0(
b10 '
b10 ,
b1 *
b10101111000 +
#1405000
1(
#1410000
0(
#1415000
1(
#1420000
b1111111111111111 :
0(
b100 '
b100 ,
b10 *
b10110001100 +
#1425000
1(
#1430000
0(
#1435000
1(
#1440000
b0 :
b1 9
0(
b11 '
b11 ,
b11 *
b10110100000 +
#1445000
1(
#1450000
0(
#1455000
1(
#1460000
b0 9
0(
b110 '
b110 ,
b100 *
b10110110100 +
#1465000
1(
#1470000
0(
#1475000
1(
#1480000
b1111111111111111 :
b1 9
0(
b101 '
b101 ,
b101 *
b10111001000 +
#1485000
1(
#1490000
0(
#1495000
1(
#1500000
b0 :
0(
b111 '
b111 ,
b110 *
b10111011100 +
#1505000
1(
#1510000
0(
#1515000
1(
#1520000
0(
b1 '
b1 ,
b0 *
b10111110000 +
#1525000
1(
#1530000
0(
#1535000
1(
#1540000
b0 9
0(
b10 '
b10 ,
b1 *
b11000000100 +
#1545000
1(
#1550000
0(
#1555000
1(
#1560000
b1111111111111111 :
0(
b100 '
b100 ,
b10 *
b11000011000 +
#1565000
1(
#1570000
0(
#1575000
1(
#1580000
b0 :
b1 9
0(
b11 '
b11 ,
b11 *
b11000101100 +
#1585000
1(
#1590000
0(
#1595000
1(
#1600000
b0 9
0(
b110 '
b110 ,
b100 *
b11001000000 +
#1605000
1(
#1610000
0(
#1615000
1(
#1620000
b1111111111111111 :
b1 9
0(
b101 '
b101 ,
b101 *
b11001010100 +
#1625000
1(
#1630000
0(
#1635000
1(
#1640000
b0 :
0(
b111 '
b111 ,
b110 *
b11001101000 +
#1645000
1(
#1650000
0(
#1655000
1(
#1660000
0(
b1 '
b1 ,
b0 *
b11001111100 +
#1665000
1(
#1670000
0(
#1675000
1(
#1680000
b0 9
0(
b10 '
b10 ,
b1 *
b11010010000 +
#1685000
1(
#1690000
0(
#1695000
1(
#1700000
b1111111111111111 :
0(
b100 '
b100 ,
b10 *
b11010100100 +
#1705000
1(
#1710000
0(
#1715000
1(
#1720000
b0 :
b1 9
0(
b11 '
b11 ,
b11 *
b11010111000 +
#1725000
1(
#1730000
0(
#1735000
1(
#1740000
b0 9
0(
b110 '
b110 ,
b100 *
b11011001100 +
#1745000
1(
#1750000
0(
#1755000
1(
#1760000
b1111111111111111 :
b1 9
0(
b101 '
b101 ,
b101 *
b11011100000 +
#1765000
1(
#1770000
0(
#1775000
1(
#1780000
b0 :
0(
b111 '
b111 ,
b110 *
b11011110100 +
#1785000
1(
#1790000
0(
#1795000
1(
#1800000
0(
b1 '
b1 ,
b0 *
b11100001000 +
#1805000
1(
#1810000
0(
#1815000
1(
#1820000
b0 9
0(
b10 '
b10 ,
b1 *
b11100011100 +
#1825000
1(
#1830000
0(
#1835000
1(
#1840000
b1111111111111111 :
0(
b100 '
b100 ,
b10 *
b11100110000 +
#1845000
1(
#1850000
0(
#1855000
1(
#1860000
b0 :
b1 9
0(
b11 '
b11 ,
b11 *
b11101000100 +
#1865000
1(
#1870000
0(
#1875000
1(
#1880000
b0 9
0(
b110 '
b110 ,
b100 *
b11101011000 +
#1885000
1(
#1890000
0(
#1895000
1(
#1900000
b1111111111111111 :
b1 9
0(
b101 '
b101 ,
b101 *
b11101101100 +
#1905000
1(
#1910000
0(
#1915000
1(
#1920000
b0 :
0(
b111 '
b111 ,
b110 *
b11110000000 +
#1925000
1(
#1930000
0(
#1935000
1(
#1940000
0(
b1 '
b1 ,
b0 *
b11110010100 +
#1945000
1(
#1950000
0(
#1955000
1(
#1960000
b0 9
0(
b10 '
b10 ,
b1 *
b11110101000 +
#1965000
1(
#1970000
0(
#1975000
1(
#1980000
b1111111111111111 :
0(
b100 '
b100 ,
b10 *
b11110111100 +
#1985000
1(
#1990000
0(
#1995000
1(
#2000000
b0 :
b1 9
0(
b11 '
b11 ,
b11 *
b11111010000 +
#2005000
1(
#2010000
0(
#2015000
1(
#2020000
b0 9
0(
b110 '
b110 ,
b100 *
b11111100100 +
#2025000
1(
#2030000
0(
#2035000
1(
#2040000
b1111111111111111 :
b1 9
0(
b101 '
b101 ,
b101 *
b11111111000 +
#2045000
1(
#2050000
0(
#2055000
1(
#2060000
b0 :
0(
b111 '
b111 ,
b110 *
b100000001100 +
#2065000
1(
#2070000
0(
#2075000
1(
#2080000
0(
b1 '
b1 ,
b0 *
b100000100000 +
#2085000
1(
#2090000
0(
#2095000
1(
#2100000
b0 9
0(
b10 '
b10 ,
b1 *
b100000110100 +
#2105000
1(
#2110000
0(
#2115000
1(
#2120000
b1111111111111111 :
0(
b100 '
b100 ,
b10 *
b100001001000 +
#2125000
1(
#2130000
0(
#2135000
1(
#2140000
b0 :
b1 9
0(
b11 '
b11 ,
b11 *
b100001011100 +
#2145000
1(
#2150000
0(
#2155000
1(
#2160000
b0 9
0(
b110 '
b110 ,
b100 *
b100001110000 +
#2165000
1(
#2170000
0(
#2175000
1(
#2180000
b1111111111111111 :
b1 9
0(
b101 '
b101 ,
b101 *
b100010000100 +
#2185000
1(
#2190000
0(
#2195000
1(
#2200000
b0 :
0(
b111 '
b111 ,
b110 *
b100010011000 +
#2205000
1(
#2210000
0(
#2215000
1(
#2220000
0(
b1 '
b1 ,
b0 *
b100010101100 +
#2225000
1(
#2230000
0(
#2235000
1(
#2240000
b0 9
0(
b10 '
b10 ,
b1 *
b100011000000 +
#2245000
1(
#2250000
0(
#2255000
1(
#2260000
b1111111111111111 :
0(
b100 '
b100 ,
b10 *
b100011010100 +
#2265000
1(
#2270000
0(
#2275000
1(
#2280000
b0 :
b1 9
0(
b11 '
b11 ,
b11 *
b100011101000 +
#2285000
1(
#2290000
0(
#2295000
1(
#2300000
b0 9
0(
b110 '
b110 ,
b100 *
b100011111100 +
#2305000
1(
#2310000
0(
#2315000
1(
#2320000
b1111111111111111 :
b1 9
0(
b101 '
b101 ,
b101 *
b100100010000 +
#2325000
1(
#2330000
0(
#2335000
1(
#2340000
b0 :
0(
b111 '
b111 ,
b110 *
b100100100100 +
#2345000
1(
#2350000
0(
#2355000
1(
#2360000
0(
b1 '
b1 ,
b0 *
b100100111000 +
#2365000
1(
#2370000
0(
#2375000
1(
#2380000
b0 9
0(
b10 '
b10 ,
b1 *
b100101001100 +
#2385000
1(
#2390000
0(
#2395000
1(
#2400000
b1111111111111111 :
0(
b100 '
b100 ,
b10 *
b100101100000 +
#2405000
1(
#2410000
0(
#2415000
1(
#2420000
b0 :
b1 9
0(
b11 '
b11 ,
b11 *
b100101110100 +
#2425000
1(
#2430000
0(
#2435000
1(
#2440000
b0 9
0(
b110 '
b110 ,
b100 *
b100110001000 +
#2445000
1(
#2450000
0(
#2455000
1(
#2460000
b1111111111111111 :
b1 9
0(
b101 '
b101 ,
b101 *
b100110011100 +
#2465000
1(
#2470000
0(
#2475000
1(
#2480000
b0 :
0(
b111 '
b111 ,
b110 *
b100110110000 +
#2485000
1(
#2490000
0(
#2495000
1(
#2500000
0(
b1 '
b1 ,
b0 *
b100111000100 +
#2505000
1(
#2510000
0(
#2515000
1(
#2520000
b0 9
0(
b10 '
b10 ,
b1 *
b100111011000 +
#2525000
1(
#2530000
0(
#2535000
1(
#2540000
b1111111111111111 :
0(
b100 '
b100 ,
b10 *
b100111101100 +
#2545000
1(
#2550000
0(
#2555000
1(
#2560000
b0 :
b1 9
0(
b11 '
b11 ,
b11 *
b101000000000 +
#2565000
1(
#2570000
0(
#2575000
1(
#2580000
b0 9
0(
b110 '
b110 ,
b100 *
b101000010100 +
#2585000
1(
#2590000
0(
#2595000
1(
#2600000
b1111111111111111 :
b1 9
0(
b101 '
b101 ,
b101 *
b101000101000 +
#2605000
1(
#2610000
0(
#2615000
1(
#2620000
b0 :
0(
b111 '
b111 ,
b110 *
b101000111100 +
#2625000
1(
#2630000
0(
#2635000
1(
#2640000
0(
b1 '
b1 ,
b0 *
b101001010000 +
#2645000
1(
#2650000
0(
#2655000
1(
#2660000
b0 9
0(
b10 '
b10 ,
b1 *
b101001100100 +
#2665000
1(
#2670000
0(
#2675000
1(
#2680000
b1111111111111111 :
0(
b100 '
b100 ,
b10 *
b101001111000 +
#2685000
1(
#2690000
0(
#2695000
1(
#2700000
b0 :
b1 9
0(
b11 '
b11 ,
b11 *
b101010001100 +
#2705000
1(
#2710000
0(
#2715000
1(
#2720000
b0 9
0(
b110 '
b110 ,
b100 *
b101010100000 +
#2725000
1(
#2730000
0(
#2735000
1(
#2740000
b1111111111111111 :
b1 9
0(
b101 '
b101 ,
b101 *
b101010110100 +
#2745000
1(
#2750000
0(
#2755000
1(
#2760000
b0 :
0(
b111 '
b111 ,
b110 *
b101011001000 +
#2765000
1(
#2770000
0(
#2775000
1(
#2780000
0(
b1 '
b1 ,
b0 *
b101011011100 +
#2785000
1(
#2790000
0(
#2795000
1(
#2800000
b0 9
0(
b10 '
b10 ,
b1 *
b101011110000 +
#2805000
1(
#2810000
0(
#2815000
1(
#2820000
b1111111111111111 :
0(
b100 '
b100 ,
b10 *
b101100000100 +
#2825000
1(
#2830000
0(
#2835000
1(
#2840000
b0 :
b1 9
0(
b11 '
b11 ,
b11 *
b101100011000 +
#2845000
1(
#2850000
0(
#2855000
1(
#2860000
b0 9
0(
b110 '
b110 ,
b100 *
b101100101100 +
#2865000
1(
#2870000
0(
#2875000
1(
#2880000
b1111111111111111 :
b1 9
0(
b101 '
b101 ,
b101 *
b101101000000 +
#2885000
1(
#2890000
0(
#2895000
1(
#2900000
b0 :
0(
b111 '
b111 ,
b110 *
b101101010100 +
#2905000
1(
#2910000
0(
#2915000
1(
#2920000
0(
b1 '
b1 ,
b0 *
b101101101000 +
#2925000
1(
#2930000
0(
#2935000
1(
#2940000
b0 9
0(
b10 '
b10 ,
b1 *
b101101111100 +
#2945000
1(
#2950000
0(
#2955000
1(
#2960000
b1111111111111111 :
0(
b100 '
b100 ,
b10 *
b101110010000 +
#2965000
1(
#2970000
0(
#2975000
1(
#2980000
b0 :
b1 9
0(
b11 '
b11 ,
b11 *
b101110100100 +
#2985000
1(
#2990000
0(
#2995000
1(
#3000000
b0 9
0(
b110 '
b110 ,
b100 *
b101110111000 +
#3005000
1(
#3010000
0(
#3015000
1(
#3020000
b1111111111111111 :
b1 9
0(
b101 '
b101 ,
b101 *
b101111001100 +
#3025000
1(
#3030000
0(
#3035000
1(
#3040000
b0 :
0(
b111 '
b111 ,
b110 *
b101111100000 +
#3045000
1(
#3050000
0(
#3055000
1(
#3060000
0(
b1 '
b1 ,
b0 *
b101111110100 +
#3065000
1(
#3070000
0(
#3075000
1(
#3080000
b0 9
0(
b10 '
b10 ,
b1 *
b110000001000 +
#3085000
1(
#3090000
0(
#3095000
1(
#3100000
b1111111111111111 :
0(
b100 '
b100 ,
b10 *
b110000011100 +
#3105000
1(
#3110000
0(
#3115000
1(
#3120000
b0 :
b1 9
0(
b11 '
b11 ,
b11 *
b110000110000 +
#3125000
1(
#3130000
0(
#3135000
1(
#3140000
b0 9
0(
b110 '
b110 ,
b100 *
b110001000100 +
#3145000
1(
#3150000
0(
#3155000
1(
#3160000
b1111111111111111 :
b1 9
0(
b101 '
b101 ,
b101 *
b110001011000 +
#3165000
1(
#3170000
0(
#3175000
1(
#3180000
b0 :
0(
b111 '
b111 ,
b110 *
b110001101100 +
#3185000
1(
#3190000
0(
#3195000
1(
#3200000
0(
b1 '
b1 ,
b0 *
b110010000000 +
#3205000
1(
#3210000
0(
#3215000
1(
#3220000
b0 9
0(
b10 '
b10 ,
b1 *
b110010010100 +
#3225000
1(
#3230000
0(
#3235000
1(
#3240000
b1111111111111111 :
0(
b100 '
b100 ,
b10 *
b110010101000 +
#3245000
1(
#3250000
0(
#3255000
1(
#3260000
b0 :
b1 9
0(
b11 '
b11 ,
b11 *
b110010111100 +
#3265000
1(
#3270000
0(
#3275000
1(
#3280000
b0 9
0(
b110 '
b110 ,
b100 *
b110011010000 +
#3285000
1(
#3290000
0(
#3295000
1(
#3300000
b1111111111111111 :
b1 9
0(
b101 '
b101 ,
b101 *
b110011100100 +
#3305000
1(
#3310000
0(
#3315000
1(
#3320000
b0 :
0(
b111 '
b111 ,
b110 *
b110011111000 +
#3325000
1(
#3330000
0(
#3335000
1(
#3340000
0(
b1 '
b1 ,
b0 *
b110100001100 +
#3345000
1(
#3350000
0(
#3355000
1(
#3360000
b0 9
0(
b10 '
b10 ,
b1 *
b110100100000 +
#3365000
1(
#3370000
0(
#3375000
1(
#3380000
b1111111111111111 :
0(
b100 '
b100 ,
b10 *
b110100110100 +
#3385000
1(
#3390000
0(
#3395000
1(
#3400000
b0 :
b1 9
0(
b11 '
b11 ,
b11 *
b110101001000 +
#3405000
1(
#3410000
0(
#3415000
1(
#3420000
b0 9
0(
b110 '
b110 ,
b100 *
b110101011100 +
#3425000
1(
#3430000
0(
#3435000
1(
#3440000
b1111111111111111 :
b1 9
0(
b101 '
b101 ,
b101 *
b110101110000 +
#3445000
1(
#3450000
0(
#3455000
1(
#3460000
b0 :
0(
b111 '
b111 ,
b110 *
b110110000100 +
#3465000
1(
#3470000
0(
#3475000
1(
#3480000
0(
b1 '
b1 ,
b0 *
b110110011000 +
#3485000
1(
#3490000
0(
#3495000
1(
#3500000
b0 9
0(
b10 '
b10 ,
b1 *
b110110101100 +
#3505000
1(
#3510000
0(
#3515000
1(
#3520000
b1111111111111111 :
0(
b100 '
b100 ,
b10 *
b110111000000 +
#3525000
1(
#3530000
0(
#3535000
1(
#3540000
b0 :
b1 9
0(
b11 '
b11 ,
b11 *
b110111010100 +
#3545000
1(
#3550000
0(
#3555000
1(
#3560000
b0 9
0(
b110 '
b110 ,
b100 *
b110111101000 +
#3565000
1(
#3570000
0(
#3575000
1(
#3580000
b1111111111111111 :
b1 9
0(
b101 '
b101 ,
b101 *
b110111111100 +
#3585000
1(
#3590000
0(
#3595000
1(
#3600000
b0 :
0(
b111 '
b111 ,
b110 *
b111000010000 +
#3605000
1(
#3610000
0(
#3615000
1(
#3620000
0(
b1 '
b1 ,
b0 *
b111000100100 +
#3625000
1(
#3630000
0(
#3635000
1(
#3640000
b0 9
0(
b10 '
b10 ,
b1 *
b111000111000 +
#3645000
1(
#3650000
0(
#3655000
1(
#3660000
b1111111111111111 :
0(
b100 '
b100 ,
b10 *
b111001001100 +
#3665000
1(
#3670000
0(
#3675000
1(
#3680000
b0 :
b1 9
0(
b11 '
b11 ,
b11 *
b111001100000 +
#3685000
1(
#3690000
0(
#3695000
1(
#3700000
b0 9
0(
b110 '
b110 ,
b100 *
b111001110100 +
#3705000
1(
#3710000
0(
#3715000
1(
#3720000
b1111111111111111 :
b1 9
0(
b101 '
b101 ,
b101 *
b111010001000 +
#3725000
1(
#3730000
0(
#3735000
1(
#3740000
b0 :
0(
b111 '
b111 ,
b110 *
b111010011100 +
#3745000
1(
#3750000
0(
#3755000
1(
#3760000
0(
b1 '
b1 ,
b0 *
b111010110000 +
#3765000
1(
#3770000
0(
#3775000
1(
#3780000
b0 9
0(
b10 '
b10 ,
b1 *
b111011000100 +
#3785000
1(
#3790000
0(
#3795000
1(
#3800000
b1111111111111111 :
0(
b100 '
b100 ,
b10 *
b111011011000 +
#3805000
1(
#3810000
0(
#3815000
1(
#3820000
b0 :
b1 9
0(
b11 '
b11 ,
b11 *
b111011101100 +
#3825000
1(
#3830000
0(
#3835000
1(
#3840000
b0 9
0(
b110 '
b110 ,
b100 *
b111100000000 +
#3845000
1(
#3850000
0(
#3855000
1(
#3860000
b1111111111111111 :
b1 9
0(
b101 '
b101 ,
b101 *
b111100010100 +
#3865000
1(
#3870000
0(
#3875000
1(
#3880000
b0 :
0(
b111 '
b111 ,
b110 *
b111100101000 +
#3885000
1(
#3890000
0(
#3895000
1(
#3900000
0(
b1 '
b1 ,
b0 *
b111100111100 +
#3905000
1(
#3910000
0(
#3915000
1(
#3920000
b0 9
0(
b10 '
b10 ,
b1 *
b111101010000 +
#3925000
1(
#3930000
0(
#3935000
1(
#3940000
b1111111111111111 :
0(
b100 '
b100 ,
b10 *
b111101100100 +
#3945000
1(
#3950000
0(
#3955000
1(
#3960000
b0 :
b1 9
0(
b11 '
b11 ,
b11 *
b111101111000 +
#3965000
1(
#3970000
0(
#3975000
1(
#3980000
b0 9
0(
b110 '
b110 ,
b100 *
b111110001100 +
#3985000
1(
#3990000
0(
#3995000
1(
#4000000
b1111111111111111 :
b1 9
0(
b101 '
b101 ,
b101 *
b111110100000 +
#4005000
1(
#4010000
0(
#4015000
1(
#4020000
b0 :
0(
b111 '
b111 ,
b110 *
b111110110100 +
#4025000
1(
#4030000
0(
#4035000
1(
#4040000
0(
b1 '
b1 ,
b0 *
b111111001000 +
#4045000
1(
#4050000
0(
#4055000
1(
#4060000
b0 9
0(
b10 '
b10 ,
b1 *
b111111011100 +
#4065000
1(
#4070000
0(
#4075000
1(
#4080000
b1111111111111111 :
0(
b100 '
b100 ,
b10 *
b111111110000 +
#4085000
1(
#4090000
0(
#4095000
1(
#4100000
b0 :
b1 9
0(
b11 '
b11 ,
b11 *
b1000000000100 +
#4105000
1(
#4110000
0(
#4115000
1(
#4120000
b0 9
0(
b110 '
b110 ,
b100 *
b1000000011000 +
#4125000
1(
#4130000
0(
#4135000
1(
#4140000
b1111111111111111 :
b1 9
0(
b101 '
b101 ,
b101 *
b1000000101100 +
#4145000
1(
#4150000
0(
#4155000
1(
#4160000
b0 :
0(
b111 '
b111 ,
b110 *
b1000001000000 +
#4165000
1(
#4170000
0(
#4175000
1(
#4180000
0(
b1 '
b1 ,
b0 *
b1000001010100 +
#4185000
1(
#4190000
0(
#4195000
1(
#4200000
b0 9
0(
b10 '
b10 ,
b1 *
b1000001101000 +
#4205000
1(
#4210000
0(
#4215000
1(
#4220000
b1111111111111111 :
0(
b100 '
b100 ,
b10 *
b1000001111100 +
#4225000
1(
#4230000
0(
#4235000
1(
#4240000
b0 :
b1 9
0(
b11 '
b11 ,
b11 *
b1000010010000 +
#4245000
1(
#4250000
0(
#4255000
1(
#4260000
b0 9
0(
b110 '
b110 ,
b100 *
b1000010100100 +
#4265000
1(
#4270000
0(
#4275000
1(
#4280000
b1111111111111111 :
b1 9
0(
b101 '
b101 ,
b101 *
b1000010111000 +
#4285000
1(
#4290000
0(
#4295000
1(
#4300000
b0 :
0(
b111 '
b111 ,
b110 *
b1000011001100 +
#4305000
1(
#4310000
0(
#4315000
1(
#4320000
0(
b1 '
b1 ,
b0 *
b1000011100000 +
#4325000
1(
#4330000
0(
#4335000
1(
#4340000
b0 9
0(
b10 '
b10 ,
b1 *
b1000011110100 +
#4345000
1(
#4350000
0(
#4355000
1(
#4360000
b1111111111111111 :
0(
b100 '
b100 ,
b10 *
b1000100001000 +
#4365000
1(
#4370000
0(
#4375000
1(
#4380000
b0 :
b1 9
0(
b11 '
b11 ,
b11 *
b1000100011100 +
#4385000
1(
#4390000
0(
#4395000
1(
#4400000
b0 9
0(
b110 '
b110 ,
b100 *
b1000100110000 +
#4405000
1(
#4410000
0(
#4415000
1(
#4420000
b1111111111111111 :
b1 9
0(
b101 '
b101 ,
b101 *
b1000101000100 +
#4425000
1(
#4430000
0(
#4435000
1(
#4440000
b0 :
0(
b111 '
b111 ,
b110 *
b1000101011000 +
#4445000
1(
#4450000
0(
#4455000
1(
#4460000
0(
b1 '
b1 ,
b0 *
b1000101101100 +
#4465000
1(
#4470000
0(
#4475000
1(
#4480000
b0 9
0(
b10 '
b10 ,
b1 *
b1000110000000 +
#4485000
1(
#4490000
0(
#4495000
1(
#4500000
b1111111111111111 :
0(
b100 '
b100 ,
b10 *
b1000110010100 +
#4505000
1(
#4510000
0(
#4515000
1(
#4520000
b0 :
b1 9
0(
b11 '
b11 ,
b11 *
b1000110101000 +
#4525000
1(
#4530000
0(
