Vivado/spi_controller/spi_controller.sim/sim_1/behav/xsim/spi_controller.vcd
$date
   Sun Dec 29 13:20:13 2024
$end

$version
  2024.2.0
  $dumpfile ("spi_controller.vcd") 
$end

$timescale
  1ps
$end

$scope module spi_controller_tb $end
$var reg 1 ! clk $end
$var reg 1 " nReset $end
$var reg 1 # nStart $end
$var wire 1 $ nCS $end
$var wire 1 % mosi $end
$var wire 1 & done $end
$var wire 1 ' sclk $end
$var wire 1 ( cs_mon $end
$scope module uut0 $end
$var wire 1 ) clk $end
$var wire 1 * nReset $end
$var wire 1 + nStart $end
$var reg 1 , nCS $end
$var reg 1 - mosi $end
$var reg 1 . done $end
$var reg 1 / sclk $end
$var wire 1 ( cs_mon $end
$var reg 16 0 shift_reg [15:0] $end
$var reg 2 1 state_reg [1:0] $end
$var reg 4 2 bitcount [3:0] $end
$upscope $end
$upscope $end
$enddefinitions $end

#0
$dumpvars
0!
1"
1#
x$
x%
x&
x'
0(
0)
1*
1+
x,
x-
x.
x/
bx 0
bx 1
bx 2
$end

#50000
1!
1(
1)

#100000
0!
0(
0)

#150000
1!
1(
1)

#200000
0!
0(
0)

#250000
1!
1(
1)

#300000
0!
0(
0)

#350000
1!
1(
1)

#400000
0!
0(
0)

#450000
1!
1(
1)

#500000
0!
0"
0'
0(
0)
0*
0/
b0 1

#550000
1!
1(
1)

#600000
0!
1"
1'
0(
0)
1*
1/

#650000
1!
1(
1)

#700000
0!
1$
0'
0(
0)
1,
0/
b1111 2

#750000
1!
1(
1)

#800000
0!
0#
1'
0(
0)
0+
1/

#850000
1!
1(
1)

#900000
0!
0'
0(
0)
0/
b1 1

#950000
1!
1(
1)

#1000000
0!
1#
1'
0(
0)
1+
1/

#1050000
1!
1(
1)

#1100000
0!
0&
0'
0(
0)
0.
0/
b10011011 0
b10 1

#1150000
1!
1(
1)

#1200000
0!
1'
0(
0)
1/

#1250000
1!
1(
1)

#1300000
0!
0$
0%
0'
0(
0)
0,
0-
0/
b100110110 0
b11 1
b1110 2

#1350000
1!
1(
1)

#1400000
0!
1'
0(
0)
1/

#1450000
1!
1(
1)

#1500000
0!
0'
0(
0)
0/
b1001101100 0
b1101 2

#1550000
1!
1(
1)

#1600000
0!
1'
0(
0)
1/

#1650000
1!
1(
1)

#1700000
0!
0'
0(
0)
0/
b10011011000 0
b1100 2

#1750000
1!
1(
1)

#1800000
0!
1'
0(
0)
1/

#1850000
1!
1(
1)

#1900000
0!
0'
0(
0)
0/
b100110110000 0
b1011 2

#1950000
1!
1(
1)

#2000000
0!
1'
0(
0)
1/

#2050000
1!
1(
1)

#2100000
0!
0'
0(
0)
0/
b1001101100000 0
b1010 2

#2150000
1!
1(
1)

#2200000
0!
1'
0(
0)
1/

#2250000
1!
1(
1)

#2300000
0!
0'
0(
0)
0/
b10011011000000 0
b1001 2

#2350000
1!
1(
1)

#2400000
0!
1'
0(
0)
1/

#2450000
1!
1(
1)

#2500000
0!
0'
0(
0)
0/
b100110110000000 0
b1000 2

#2550000
1!
1(
1)

#2600000
0!
1'
0(
0)
1/

#2650000
1!
1(
1)

#2700000
0!
0'
0(
0)
0/
b1001101100000000 0
b111 2

#2750000
1!
1(
1)

#2800000
0!
1'
0(
0)
1/

#2850000
1!
1(
1)

#2900000
0!
1%
0'
0(
0)
1-
0/
b11011000000000 0
b110 2

#2950000
1!
1(
1)

#3000000
0!
1'
0(
0)
1/

#3050000
1!
1(
1)

#3100000
0!
0%
0'
0(
0)
0-
0/
b110110000000000 0
b101 2

#3150000
1!
1(
1)

#3200000
0!
1'
0(
0)
1/

#3250000
1!
1(
1)

#3300000
0!
0'
0(
0)
0/
b1101100000000000 0
b100 2

#3350000
1!
1(
1)

#3400000
0!
1'
0(
0)
1/

#3450000
1!
1(
1)

#3500000
0!
1%
0'
0(
0)
1-
0/
b1011000000000000 0
b11 2

#3550000
1!
1(
1)

#3600000
0!
1'
0(
0)
1/

#3650000
1!
1(
1)

#3700000
0!
0'
0(
0)
0/
b110000000000000 0
b10 2

#3750000
1!
1(
1)

#3800000
0!
1'
0(
0)
1/

#3850000
1!
1(
1)

#3900000
0!
0%
0'
0(
0)
0-
0/
b1100000000000000 0
b1 2

#3950000
1!
1(
1)

#4000000
0!
1'
0(
0)
1/

#4050000
1!
1(
1)

#4100000
0!
1%
0'
0(
0)
1-
0/
b1000000000000000 0
b0 2

#4150000
1!
1(
1)

#4200000
0!
1'
0(
0)
1/

#4250000
1!
1(
1)

#4300000
0!
1&
0'
0(
0)
1.
0/
b0 0
b0 1

#4350000
1!
1(
1)

#4400000
0!
1'
0(
0)
1/

#4450000
1!
1(
1)

#4500000
0!
1$
0'
0(
0)
1,
0/
b1111 2

#4550000
1!
1(
1)

#4600000
0!
1'
0(
0)
1/

#4650000
1!
1(
1)

#4700000
0!
0'
0(
0)
0/

#4750000
1!
1(
1)

#4800000
0!
1'
0(
0)
1/

#4850000
1!
1(
1)

#4900000
0!
0'
0(
0)
0/

#4950000
1!
1(
1)

#5000000
0!
1'
0(
0)
1/

#5050000
1!
1(
1)

#5100000
0!
0'
0(
0)
0/

#5150000
1!
1(
1)

#5200000
0!
1'
0(
0)
1/

#5250000
1!
1(
1)

#5300000
0!
0'
0(
0)
0/

#5350000
1!
1(
1)

#5400000
0!
1'
0(
0)
1/

#5450000
1!
1(
1)

#5500000
0!
0'
0(
0)
0/

#5550000
1!
1(
1)

#5600000
0!
1'
0(
0)
1/

#5650000
1!
1(
1)

#5700000
0!
0'
0(
0)
0/

#5750000
1!
1(
1)

#5800000
0!
1'
0(
0)
1/

#5850000
1!
1(
1)

#5900000
0!
0'
0(
0)
0/

#5950000
1!
1(
1)
